[
    {"_id":{"level":13,"age":97},"count":1},
    {"_id":{"level":13,"age":86},"count":1},
    {"_id":{"level":8,"age":96},"count":14},
    {"_id":{"level":14,"age":94},"count":1},
    {"_id":{"level":13,"age":83},"count":4},
    {"_id":{"level":13,"age":94},"count":1},
    {"_id":{"level":11,"age":97},"count":2},
    {"_id":{"level":4,"age":96},"count":1},
    {"_id":{"level":1,"age":82},"count":20},
    {"_id":{"level":13,"age":82},"count":3},
    {"_id":{"level":14,"age":86},"count":2},
    {"_id":{"level":1,"age":85},"count":11},
    {"_id":{"level":14,"age":82},"count":4},
    {"_id":{"level":14,"age":93},"count":2},
    {"_id":{"level":14,"age":83},"count":2},
    {"_id":{"level":14,"age":80},"count":8},
    {"_id":{"level":4,"age":92},"count":2},
    {"_id":{"level":1,"age":65},"count":16},
    {"_id":{"level":4,"age":91},"count":5},
    {"_id":{"level":1,"age":96},"count":3},
    {"_id":{"level":1,"age":79},"count":18},
    {"_id":{"level":4,"age":90},"count":2},
    {"_id":{"level":1,"age":26},"count":6},
    {"_id":{"level":1,"age":42},"count":9},
    {"_id":{"level":13,"age":77},"count":7},
    {"_id":{"level":14,"age":76},"count":8},
    {"_id":{"level":11,"age":90},"count":19},
    {"_id":{"level":13,"age":79},"count":9},
    {"_id":{"level":10,"age":94},"count":60},
    {"_id":{"level":13,"age":84},"count":4},
    {"_id":{"level":14,"age":66},"count":32},
    {"_id":{"level":1,"age":86},"count":9},
    {"_id":{"level":10,"age":99},"count":6},
    {"_id":{"level":12,"age":93},"count":105},
    {"_id":{"level":1,"age":25},"count":5},
    {"_id":{"level":4,"age":80},"count":14},
    {"_id":{"level":7,"age":98},"count":22},
    {"_id":{"level":14,"age":73},"count":22},
    {"_id":{"level":1,"age":35},"count":10},
    {"_id":{"level":1,"age":51},"count":12},
    {"_id":{"level":14,"age":60},"count":29},
    {"_id":{"level":1,"age":38},"count":15},
    {"_id":{"level":8,"age":98},"count":7},
    {"_id":{"level":11,"age":94},"count":11},
    {"_id":{"level":1,"age":88},"count":6},
    {"_id":{"level":8,"age":99},"count":5},
    {"_id":{"level":8,"age":91},"count":77},
    {"_id":{"level":13,"age":100},"count":4},
    {"_id":{"level":4,"age":70},"count":33},
    {"_id":{"level":1,"age":37},"count":7},
    {"_id":{"level":14,"age":54},"count":46},
    {"_id":{"level":1,"age":63},"count":16},
    {"_id":{"level":12,"age":97},"count":23},
    {"_id":{"level":13,"age":71},"count":26},
    {"_id":{"level":13,"age":78},"count":12},
    {"_id":{"level":1,"age":53},"count":20},
    {"_id":{"level":11,"age":86},"count":66},
    {"_id":{"level":4,"age":88},"count":5},
    {"_id":{"level":1,"age":30},"count":8},
    {"_id":{"level":1,"age":93},"count":6},
    {"_id":{"level":12,"age":99},"count":15},
    {"_id":{"level":1,"age":43},"count":3},
    {"_id":{"level":1,"age":81},"count":19},
    {"_id":{"level":1,"age":97},"count":1},
    {"_id":{"level":11,"age":93},"count":20},
    {"_id":{"level":13,"age":72},"count":18},
    {"_id":{"level":13,"age":74},"count":18},
    {"_id":{"level":14,"age":58},"count":38},
    {"_id":{"level":13,"age":66},"count":62},
    {"_id":{"level":4,"age":85},"count":8},
    {"_id":{"level":1,"age":57},"count":11},
    {"_id":{"level":14,"age":61},"count":37},
    {"_id":{"level":12,"age":92},"count":117},
    {"_id":{"level":14,"age":30},"count":245},
    {"_id":{"level":1,"age":66},"count":16},
    {"_id":{"level":13,"age":69},"count":28},
    {"_id":{"level":4,"age":83},"count":9},
    {"_id":{"level":12,"age":95},"count":43},
    {"_id":{"level":14,"age":29},"count":233},
    {"_id":{"level":10,"age":100},"count":27},
    {"_id":{"level":14,"age":65},"count":32},
    {"_id":{"level":14,"age":67},"count":31},
    {"_id":{"level":4,"age":65},"count":43},
    {"_id":{"level":1,"age":58},"count":16},
    {"_id":{"level":1,"age":27},"count":6},
    {"_id":{"level":7,"age":96},"count":44},
    {"_id":{"level":4,"age":77},"count":15},
    {"_id":{"level":4,"age":38},"count":260},
    {"_id":{"level":1,"age":24},"count":10},
    {"_id":{"level":14,"age":47},"count":76},
    {"_id":{"level":13,"age":67},"count":52},
    {"_id":{"level":1,"age":75},"count":22},
    {"_id":{"level":4,"age":56},"count":122},
    {"_id":{"level":1,"age":92},"count":8},
    {"_id":{"level":12,"age":98},"count":14},
    {"_id":{"level":11,"age":91},"count":15},
    {"_id":{"level":4,"age":72},"count":32},
    {"_id":{"level":1,"age":14},"count":58},
    {"_id":{"level":14,"age":23},"count":59},
    {"_id":{"level":1,"age":84},"count":10},
    {"_id":{"level":1,"age":45},"count":10},
    {"_id":{"level":13,"age":62},"count":69},
    {"_id":{"level":4,"age":75},"count":31},
    {"_id":{"level":1,"age":87},"count":9},
    {"_id":{"level":7,"age":95},"count":60},
    {"_id":{"level":14,"age":79},"count":2},
    {"_id":{"level":1,"age":74},"count":21},
    {"_id":{"level":11,"age":96},"count":5},
    {"_id":{"level":4,"age":57},"count":116},
    {"_id":{"level":11,"age":78},"count":128},
    {"_id":{"level":1,"age":72},"count":23},
    {"_id":{"level":7,"age":90},"count":245},
    {"_id":{"level":1,"age":28},"count":9},
    {"_id":{"level":12,"age":96},"count":39},
    {"_id":{"level":14,"age":31},"count":245},
    {"_id":{"level":4,"age":27},"count":423},
    {"_id":{"level":4,"age":94},"count":4},
    {"_id":{"level":1,"age":18},"count":11},
    {"_id":{"level":1,"age":21},"count":5},
    {"_id":{"level":1,"age":10},"count":37},
    {"_id":{"level":1,"age":41},"count":5},
    {"_id":{"level":4,"age":52},"count":205},
    {"_id":{"level":4,"age":1},"count":96},
    {"_id":{"level":14,"age":28},"count":263},
    {"_id":{"level":1,"age":15},"count":29},
    {"_id":{"level":6,"age":98},"count":297},
    {"_id":{"level":4,"age":0},"count":29},
    {"_id":{"level":1,"age":9},"count":54},
    {"_id":{"level":1,"age":22},"count":8},
    {"_id":{"level":1,"age":11},"count":47},
    {"_id":{"level":11,"age":89},"count":35},
    {"_id":{"level":4,"age":58},"count":99},
    {"_id":{"level":4,"age":66},"count":39},
    {"_id":{"level":14,"age":57},"count":35},
    {"_id":{"level":14,"age":81},"count":7},
    {"_id":{"level":14,"age":43},"count":125},
    {"_id":{"level":4,"age":48},"count":241},
    {"_id":{"level":1,"age":52},"count":18},
    {"_id":{"level":4,"age":81},"count":10},
    {"_id":{"level":9,"age":96},"count":332},
    {"_id":{"level":8,"age":95},"count":31},
    {"_id":{"level":4,"age":63},"count":64},
    {"_id":{"level":14,"age":41},"count":131},
    {"_id":{"level":6,"age":99},"count":261},
    {"_id":{"level":12,"age":100},"count":102},
    {"_id":{"level":1,"age":61},"count":19},
    {"_id":{"level":11,"age":85},"count":66},
    {"_id":{"level":10,"age":98},"count":15},
    {"_id":{"level":8,"age":89},"count":110},
    {"_id":{"level":14,"age":34},"count":224},
    {"_id":{"level":13,"age":64},"count":47},
    {"_id":{"level":1,"age":98},"count":2},
    {"_id":{"level":1,"age":49},"count":13},
    {"_id":{"level":12,"age":89},"count":256},
    {"_id":{"level":11,"age":84},"count":70},
    {"_id":{"level":11,"age":73},"count":224},
    {"_id":{"level":11,"age":72},"count":254},
    {"_id":{"level":1,"age":59},"count":19},
    {"_id":{"level":4,"age":10},"count":992},
    {"_id":{"level":4,"age":55},"count":155},
    {"_id":{"level":8,"age":84},"count":265},
    {"_id":{"level":14,"age":40},"count":132},
    {"_id":{"level":14,"age":48},"count":79},
    {"_id":{"level":13,"age":54},"count":180},
    {"_id":{"level":8,"age":100},"count":47},
    {"_id":{"level":1,"age":83},"count":12},
    {"_id":{"level":14,"age":32},"count":249},
    {"_id":{"level":13,"age":55},"count":189},
    {"_id":{"level":4,"age":67},"count":30},
    {"_id":{"level":8,"age":87},"count":150},
    {"_id":{"level":9,"age":93},"count":792},
    {"_id":{"level":7,"age":99},"count":23},
    {"_id":{"level":1,"age":23},"count":12},
    {"_id":{"level":14,"age":35},"count":188},
    {"_id":{"level":4,"age":5},"count":776},
    {"_id":{"level":10,"age":91},"count":144},
    {"_id":{"level":7,"age":94},"count":90},
    {"_id":{"level":9,"age":100},"count":260},
    {"_id":{"level":11,"age":76},"count":169},
    {"_id":{"level":13,"age":24},"count":663},
    {"_id":{"level":4,"age":43},"count":307},
    {"_id":{"level":4,"age":31},"count":333},
    {"_id":{"level":9,"age":92},"count":1057},
    {"_id":{"level":4,"age":46},"count":246},
    {"_id":{"level":4,"age":30},"count":306},
    {"_id":{"level":4,"age":89},"count":6},
    {"_id":{"level":14,"age":69},"count":14},
    {"_id":{"level":14,"age":49},"count":83},
    {"_id":{"level":4,"age":69},"count":17},
    {"_id":{"level":8,"age":93},"count":48},
    {"_id":{"level":4,"age":35},"count":325},
    {"_id":{"level":9,"age":95},"count":481},
    {"_id":{"level":4,"age":37},"count":318},
    {"_id":{"level":4,"age":97},"count":1},
    {"_id":{"level":4,"age":64},"count":46},
    {"_id":{"level":10,"age":97},"count":23},
    {"_id":{"level":12,"age":83},"count":518},
    {"_id":{"level":14,"age":59},"count":38},
    {"_id":{"level":14,"age":44},"count":93},
    {"_id":{"level":1,"age":13},"count":193},
    {"_id":{"level":13,"age":47},"count":350},
    {"_id":{"level":4,"age":9},"count":982},
    {"_id":{"level":4,"age":34},"count":342},
    {"_id":{"level":4,"age":47},"count":278},
    {"_id":{"level":7,"age":88},"count":376},
    {"_id":{"level":1,"age":94},"count":3},
    {"_id":{"level":14,"age":39},"count":141},
    {"_id":{"level":4,"age":51},"count":209},
    {"_id":{"level":4,"age":25},"count":606},
    {"_id":{"level":8,"age":71},"count":1260},
    {"_id":{"level":1,"age":55},"count":13},
    {"_id":{"level":13,"age":59},"count":104},
    {"_id":{"level":4,"age":8},"count":877},
    {"_id":{"level":13,"age":53},"count":209},
    {"_id":{"level":4,"age":28},"count":404},
    {"_id":{"level":11,"age":60},"count":832},
    {"_id":{"level":4,"age":73},"count":15},
    {"_id":{"level":13,"age":85},"count":1},
    {"_id":{"level":11,"age":83},"count":82},
    {"_id":{"level":4,"age":60},"count":71},
    {"_id":{"level":7,"age":83},"count":788},
    {"_id":{"level":9,"age":98},"count":153},
    {"_id":{"level":11,"age":63},"count":669},
    {"_id":{"level":5,"age":94},"count":1334},
    {"_id":{"level":1,"age":78},"count":20},
    {"_id":{"level":1,"age":95},"count":3},
    {"_id":{"level":14,"age":33},"count":226},
    {"_id":{"level":13,"age":48},"count":314},
    {"_id":{"level":4,"age":44},"count":306},
    {"_id":{"level":4,"age":36},"count":338},
    {"_id":{"level":4,"age":45},"count":274},
    {"_id":{"level":1,"age":62},"count":20},
    {"_id":{"level":13,"age":23},"count":381},
    {"_id":{"level":1,"age":12},"count":59},
    {"_id":{"level":1,"age":56},"count":14},
    {"_id":{"level":14,"age":56},"count":39},
    {"_id":{"level":10,"age":92},"count":109},
    {"_id":{"level":8,"age":82},"count":324},
    {"_id":{"level":11,"age":55},"count":1220},
    {"_id":{"level":4,"age":78},"count":17},
    {"_id":{"level":13,"age":43},"count":639},
    {"_id":{"level":11,"age":40},"count":2734},
    {"_id":{"level":4,"age":20},"count":728},
    {"_id":{"level":7,"age":78},"count":1382},
    {"_id":{"level":14,"age":25},"count":101},
    {"_id":{"level":10,"age":67},"count":1793},
    {"_id":{"level":7,"age":72},"count":3093},
    {"_id":{"level":8,"age":88},"count":123},
    {"_id":{"level":4,"age":22},"count":688},
    {"_id":{"level":8,"age":90},"count":78},
    {"_id":{"level":11,"age":74},"count":213},
    {"_id":{"level":14,"age":72},"count":16},
    {"_id":{"level":9,"age":97},"count":241},
    {"_id":{"level":11,"age":64},"count":656},
    {"_id":{"level":5,"age":91},"count":2588},
    {"_id":{"level":10,"age":68},"count":1788},
    {"_id":{"level":8,"age":85},"count":232},
    {"_id":{"level":13,"age":29},"count":1413},
    {"_id":{"level":14,"age":70},"count":23},
    {"_id":{"level":13,"age":61},"count":82},
    {"_id":{"level":14,"age":64},"count":41},
    {"_id":{"level":12,"age":81},"count":652},
    {"_id":{"level":6,"age":93},"count":1329},
    {"_id":{"level":10,"age":80},"count":707},
    {"_id":{"level":14,"age":36},"count":171},
    {"_id":{"level":13,"age":58},"count":120},
    {"_id":{"level":7,"age":84},"count":719},
    {"_id":{"level":13,"age":27},"count":1362},
    {"_id":{"level":1,"age":54},"count":15},
    {"_id":{"level":4,"age":23},"count":713},
    {"_id":{"level":8,"age":79},"count":481},
    {"_id":{"level":4,"age":39},"count":284},
    {"_id":{"level":13,"age":63},"count":68},
    {"_id":{"level":4,"age":4},"count":1504},
    {"_id":{"level":8,"age":73},"count":1056},
    {"_id":{"level":4,"age":14},"count":904},
    {"_id":{"level":12,"age":50},"count":4027},
    {"_id":{"level":14,"age":50},"count":82},
    {"_id":{"level":13,"age":46},"count":389},
    {"_id":{"level":1,"age":50},"count":12},
    {"_id":{"level":1,"age":89},"count":12},
    {"_id":{"level":13,"age":28},"count":1303},
    {"_id":{"level":9,"age":94},"count":623},
    {"_id":{"level":4,"age":3},"count":3562},
    {"_id":{"level":10,"age":59},"count":2706},
    {"_id":{"level":5,"age":95},"count":984},
    {"_id":{"level":12,"age":74},"count":1464},
    {"_id":{"level":11,"age":23},"count":10214},
    {"_id":{"level":8,"age":81},"count":370},
    {"_id":{"level":6,"age":91},"count":2158},
    {"_id":{"level":11,"age":38},"count":3029},
    {"_id":{"level":11,"age":82},"count":80},
    {"_id":{"level":11,"age":49},"count":1962},
    {"_id":{"level":14,"age":89},"count":2},
    {"_id":{"level":9,"age":84},"count":4243},
    {"_id":{"level":7,"age":86},"count":559},
    {"_id":{"level":13,"age":37},"count":970},
    {"_id":{"level":11,"age":79},"count":105},
    {"_id":{"level":11,"age":53},"count":1484},
    {"_id":{"level":13,"age":35},"count":1095},
    {"_id":{"level":13,"age":42},"count":611},
    {"_id":{"level":1,"age":0},"count":15015},
    {"_id":{"level":8,"age":86},"count":171},
    {"_id":{"level":6,"age":95},"count":797},
    {"_id":{"level":6,"age":84},"count":6139},
    {"_id":{"level":5,"age":99},"count":248},
    {"_id":{"level":11,"age":69},"count":319},
    {"_id":{"level":6,"age":92},"count":1884},
    {"_id":{"level":7,"age":74},"count":2574},
    {"_id":{"level":10,"age":66},"count":1736},
    {"_id":{"level":11,"age":66},"count":464},
    {"_id":{"level":11,"age":61},"count":716},
    {"_id":{"level":14,"age":62},"count":33},
    {"_id":{"level":11,"age":31},"count":5118},
    {"_id":{"level":8,"age":66},"count":1997},
    {"_id":{"level":1,"age":44},"count":17},
    {"_id":{"level":7,"age":89},"count":294},
    {"_id":{"level":12,"age":73},"count":1599},
    {"_id":{"level":11,"age":21},"count":13656},
    {"_id":{"level":12,"age":85},"count":431},
    {"_id":{"level":11,"age":44},"count":2574},
    {"_id":{"level":11,"age":68},"count":373},
    {"_id":{"level":1,"age":60},"count":14},
    {"_id":{"level":9,"age":80},"count":5729},
    {"_id":{"level":1,"age":90},"count":10},
    {"_id":{"level":7,"age":87},"count":507},
    {"_id":{"level":14,"age":74},"count":14},
    {"_id":{"level":11,"age":58},"count":887},
    {"_id":{"level":12,"age":90},"count":198},
    {"_id":{"level":10,"age":78},"count":881},
    {"_id":{"level":11,"age":46},"count":2276},
    {"_id":{"level":13,"age":68},"count":40},
    {"_id":{"level":9,"age":72},"count":11220},
    {"_id":{"level":10,"age":87},"count":324},
    {"_id":{"level":9,"age":76},"count":8497},
    {"_id":{"level":1,"age":48},"count":17},
    {"_id":{"level":10,"age":74},"count":1408},
    {"_id":{"level":13,"age":75},"count":8},
    {"_id":{"level":10,"age":86},"count":423},
    {"_id":{"level":12,"age":72},"count":1859},
    {"_id":{"level":1,"age":46},"count":10},
    {"_id":{"level":1,"age":19},"count":5},
    {"_id":{"level":6,"age":76},"count":10232},
    {"_id":{"level":8,"age":75},"count":840},
    {"_id":{"level":10,"age":79},"count":809},
    {"_id":{"level":6,"age":96},"count":661},
    {"_id":{"level":12,"age":71},"count":2029},
    {"_id":{"level":11,"age":59},"count":829},
    {"_id":{"level":12,"age":44},"count":5908},
    {"_id":{"level":7,"age":31},"count":15946},
    {"_id":{"level":12,"age":77},"count":990},
    {"_id":{"level":4,"age":33},"count":291},
    {"_id":{"level":8,"age":94},"count":34},
    {"_id":{"level":7,"age":79},"count":1273},
    {"_id":{"level":10,"age":63},"count":1950},
    {"_id":{"level":13,"age":56},"count":142},
    {"_id":{"level":9,"age":91},"count":1212},
    {"_id":{"level":6,"age":80},"count":8263},
    {"_id":{"level":10,"age":90},"count":166},
    {"_id":{"level":7,"age":82},"count":893},
    {"_id":{"level":4,"age":6},"count":719},
    {"_id":{"level":11,"age":30},"count":5660},
    {"_id":{"level":5,"age":90},"count":3323},
    {"_id":{"level":12,"age":75},"count":1332},
    {"_id":{"level":11,"age":48},"count":2044},
    {"_id":{"level":12,"age":62},"count":4080},
    {"_id":{"level":9,"age":64},"count":9030},
    {"_id":{"level":9,"age":69},"count":12428},
    {"_id":{"level":5,"age":98},"count":348},
    {"_id":{"level":6,"age":82},"count":7228},
    {"_id":{"level":11,"age":99},"count":2},
    {"_id":{"level":12,"age":70},"count":2229},
    {"_id":{"level":11,"age":87},"count":60},
    {"_id":{"level":12,"age":65},"count":3962},
    {"_id":{"level":9,"age":81},"count":5406},
    {"_id":{"level":7,"age":75},"count":2225},
    {"_id":{"level":4,"age":18},"count":833},
    {"_id":{"level":9,"age":86},"count":3631},
    {"_id":{"level":8,"age":74},"count":968},
    {"_id":{"level":10,"age":81},"count":604},
    {"_id":{"level":8,"age":47},"count":8296},
    {"_id":{"level":9,"age":88},"count":2603},
    {"_id":{"level":1,"age":91},"count":10},
    {"_id":{"level":8,"age":77},"count":687},
    {"_id":{"level":10,"age":77},"count":983},
    {"_id":{"level":8,"age":78},"count":542},
    {"_id":{"level":12,"age":27},"count":25552},
    {"_id":{"level":14,"age":84},"count":3},
    {"_id":{"level":12,"age":63},"count":4422},
    {"_id":{"level":12,"age":42},"count":6834},
    {"_id":{"level":8,"age":67},"count":1844},
    {"_id":{"level":4,"age":32},"count":312},
    {"_id":{"level":7,"age":26},"count":18039},
    {"_id":{"level":12,"age":67},"count":3104},
    {"_id":{"level":8,"age":52},"count":8053},
    {"_id":{"level":7,"age":91},"count":182},
    {"_id":{"level":4,"age":59},"count":96},
    {"_id":{"level":12,"age":91},"count":156},
    {"_id":{"level":12,"age":88},"count":271},
    {"_id":{"level":13,"age":73},"count":14},
    {"_id":{"level":11,"age":33},"count":4269},
    {"_id":{"level":9,"age":79},"count":6236},
    {"_id":{"level":11,"age":39},"count":2913},
    {"_id":{"level":10,"age":75},"count":1184},
    {"_id":{"level":11,"age":35},"count":4058},
    {"_id":{"level":4,"age":82},"count":6},
    {"_id":{"level":14,"age":68},"count":23},
    {"_id":{"level":10,"age":76},"count":1188},
    {"_id":{"level":7,"age":77},"count":1889},
    {"_id":{"level":4,"age":93},"count":4},
    {"_id":{"level":9,"age":70},"count":12038},
    {"_id":{"level":8,"age":63},"count":3479},
    {"_id":{"level":11,"age":27},"count":7710},
    {"_id":{"level":9,"age":99},"count":128},
    {"_id":{"level":12,"age":60},"count":3960},
    {"_id":{"level":13,"age":32},"count":1285},
    {"_id":{"level":13,"age":33},"count":1218},
    {"_id":{"level":7,"age":81},"count":977},
    {"_id":{"level":5,"age":88},"count":5110},
    {"_id":{"level":13,"age":60},"count":108},
    {"_id":{"level":13,"age":25},"count":985},
    {"_id":{"level":10,"age":62},"count":2280},
    {"_id":{"level":7,"age":66},"count":6800},
    {"_id":{"level":4,"age":21},"count":746},
    {"_id":{"level":11,"age":100},"count":24},
    {"_id":{"level":8,"age":30},"count":8650},
    {"_id":{"level":8,"age":33},"count":7473},
    {"_id":{"level":1,"age":67},"count":29},
    {"_id":{"level":7,"age":33},"count":14608},
    {"_id":{"level":7,"age":76},"count":2027},
    {"_id":{"level":12,"age":86},"count":426},
    {"_id":{"level":12,"age":51},"count":4011},
    {"_id":{"level":13,"age":80},"count":5},
    {"_id":{"level":14,"age":24},"count":52},
    {"_id":{"level":6,"age":72},"count":10747},
    {"_id":{"level":5,"age":87},"count":6399},
    {"_id":{"level":11,"age":50},"count":1802},
    {"_id":{"level":13,"age":39},"count":754},
    {"_id":{"level":8,"age":60},"count":5500},
    {"_id":{"level":7,"age":70},"count":3789},
    {"_id":{"level":1,"age":20},"count":9},
    {"_id":{"level":14,"age":42},"count":110},
    {"_id":{"level":9,"age":74},"count":10172},
    {"_id":{"level":8,"age":46},"count":8132},
    {"_id":{"level":6,"age":88},"count":4122},
    {"_id":{"level":11,"age":26},"count":8170},
    {"_id":{"level":12,"age":49},"count":4211},
    {"_id":{"level":12,"age":23},"count":57460},
    {"_id":{"level":1,"age":70},"count":19},
    {"_id":{"level":6,"age":70},"count":10752},
    {"_id":{"level":9,"age":83},"count":4402},
    {"_id":{"level":1,"age":40},"count":12},
    {"_id":{"level":7,"age":97},"count":39},
    {"_id":{"level":12,"age":56},"count":3522},
    {"_id":{"level":12,"age":30},"count":16219},
    {"_id":{"level":6,"age":74},"count":10772},
    {"_id":{"level":10,"age":93},"count":83},
    {"_id":{"level":11,"age":36},"count":3642},
    {"_id":{"level":12,"age":79},"count":758},
    {"_id":{"level":7,"age":85},"count":639},
    {"_id":{"level":8,"age":76},"count":740},
    {"_id":{"level":11,"age":45},"count":2466},
    {"_id":{"level":14,"age":75},"count":9},
    {"_id":{"level":4,"age":79},"count":22},
    {"_id":{"level":4,"age":24},"count":637},
    {"_id":{"level":9,"age":78},"count":6755},
    {"_id":{"level":9,"age":73},"count":10651},
    {"_id":{"level":12,"age":61},"count":4044},
    {"_id":{"level":12,"age":48},"count":4262},
    {"_id":{"level":8,"age":65},"count":2338},
    {"_id":{"level":8,"age":59},"count":5679},
    {"_id":{"level":12,"age":87},"count":353},
    {"_id":{"level":11,"age":37},"count":3343},
    {"_id":{"level":14,"age":52},"count":66},
    {"_id":{"level":12,"age":55},"count":3501},
    {"_id":{"level":11,"age":51},"count":1756},
    {"_id":{"level":12,"age":52},"count":4159},
    {"_id":{"level":8,"age":53},"count":7959},
    {"_id":{"level":8,"age":51},"count":8220},
    {"_id":{"level":14,"age":87},"count":4},
    {"_id":{"level":7,"age":50},"count":24536},
    {"_id":{"level":4,"age":86},"count":9},
    {"_id":{"level":8,"age":25},"count":9827},
    {"_id":{"level":8,"age":38},"count":7742},
    {"_id":{"level":9,"age":90},"count":1613},
    {"_id":{"level":7,"age":27},"count":18720},
    {"_id":{"level":9,"age":58},"count":6681},
    {"_id":{"level":14,"age":37},"count":159},
    {"_id":{"level":8,"age":72},"count":1123},
    {"_id":{"level":7,"age":57},"count":23935},
    {"_id":{"level":8,"age":32},"count":7454},
    {"_id":{"level":7,"age":29},"count":17038},
    {"_id":{"level":9,"age":60},"count":7620},
    {"_id":{"level":11,"age":54},"count":1400},
    {"_id":{"level":7,"age":56},"count":24278},
    {"_id":{"level":11,"age":75},"count":183},
    {"_id":{"level":7,"age":51},"count":24617},
    {"_id":{"level":13,"age":41},"count":692},
    {"_id":{"level":13,"age":38},"count":864},
    {"_id":{"level":6,"age":64},"count":7533},
    {"_id":{"level":4,"age":17},"count":911},
    {"_id":{"level":8,"age":92},"count":65},
    {"_id":{"level":6,"age":60},"count":5247},
    {"_id":{"level":8,"age":70},"count":1443},
    {"_id":{"level":1,"age":47},"count":7},
    {"_id":{"level":10,"age":89},"count":203},
    {"_id":{"level":8,"age":97},"count":10},
    {"_id":{"level":6,"age":81},"count":7791},
    {"_id":{"level":13,"age":65},"count":59},
    {"_id":{"level":13,"age":30},"count":1390},
    {"_id":{"level":1,"age":69},"count":15},
    {"_id":{"level":5,"age":82},"count":10106},
    {"_id":{"level":7,"age":59},"count":19693},
    {"_id":{"level":7,"age":73},"count":2771},
    {"_id":{"level":5,"age":96},"count":770},
    {"_id":{"level":13,"age":45},"count":478},
    {"_id":{"level":14,"age":38},"count":127},
    {"_id":{"level":11,"age":57},"count":968},
    {"_id":{"level":5,"age":80},"count":12175},
    {"_id":{"level":8,"age":49},"count":8777},
    {"_id":{"level":6,"age":62},"count":6250},
    {"_id":{"level":10,"age":88},"count":272},
    {"_id":{"level":6,"age":79},"count":8459},
    {"_id":{"level":5,"age":89},"count":4564},
    {"_id":{"level":8,"age":41},"count":8011},
    {"_id":{"level":5,"age":93},"count":1690},
    {"_id":{"level":13,"age":44},"count":515},
    {"_id":{"level":1,"age":33},"count":9},
    {"_id":{"level":8,"age":56},"count":8294},
    {"_id":{"level":8,"age":83},"count":289},
    {"_id":{"level":11,"age":22},"count":11974},
    {"_id":{"level":11,"age":32},"count":4748},
    {"_id":{"level":10,"age":64},"count":1827},
    {"_id":{"level":7,"age":47},"count":22714},
    {"_id":{"level":7,"age":41},"count":18229},
    {"_id":{"level":1,"age":71},"count":14},
    {"_id":{"level":10,"age":73},"count":1476},
    {"_id":{"level":10,"age":71},"count":1656},
    {"_id":{"level":9,"age":89},"count":2164},
    {"_id":{"level":4,"age":87},"count":9},
    {"_id":{"level":6,"age":75},"count":10259},
    {"_id":{"level":6,"age":89},"count":3617},
    {"_id":{"level":5,"age":19},"count":6487},
    {"_id":{"level":6,"age":61},"count":5634},
    {"_id":{"level":11,"age":19},"count":15444},
    {"_id":{"level":4,"age":95},"count":1},
    {"_id":{"level":4,"age":2},"count":242},
    {"_id":{"level":13,"age":40},"count":710},
    {"_id":{"level":5,"age":21},"count":6745},
    {"_id":{"level":8,"age":44},"count":8143},
    {"_id":{"level":8,"age":39},"count":7714},
    {"_id":{"level":9,"age":75},"count":9342},
    {"_id":{"level":4,"age":74},"count":18},
    {"_id":{"level":7,"age":80},"count":1157},
    {"_id":{"level":7,"age":54},"count":25116},
    {"_id":{"level":12,"age":41},"count":6990},
    {"_id":{"level":13,"age":31},"count":1406},
    {"_id":{"level":4,"age":84},"count":7},
    {"_id":{"level":12,"age":39},"count":7463},
    {"_id":{"level":12,"age":34},"count":11594},
    {"_id":{"level":12,"age":40},"count":7206},
    {"_id":{"level":4,"age":53},"count":195},
    {"_id":{"level":10,"age":72},"count":1578},
    {"_id":{"level":1,"age":8},"count":56},
    {"_id":{"level":1,"age":68},"count":22},
    {"_id":{"level":5,"age":37},"count":14228},
    {"_id":{"level":7,"age":69},"count":4371},
    {"_id":{"level":5,"age":73},"count":20981},
    {"_id":{"level":12,"age":32},"count":13067},
    {"_id":{"level":12,"age":35},"count":11289},
    {"_id":{"level":4,"age":41},"count":261},
    {"_id":{"level":6,"age":97},"count":367},
    {"_id":{"level":5,"age":86},"count":7408},
    {"_id":{"level":14,"age":85},"count":2},
    {"_id":{"level":12,"age":19},"count":55127},
    {"_id":{"level":7,"age":67},"count":5651},
    {"_id":{"level":12,"age":57},"count":3411},
    {"_id":{"level":12,"age":53},"count":3830},
    {"_id":{"level":9,"age":63},"count":8157},
    {"_id":{"level":7,"age":49},"count":24594},
    {"_id":{"level":7,"age":52},"count":24665},
    {"_id":{"level":5,"age":22},"count":7082},
    {"_id":{"level":7,"age":62},"count":14086},
    {"_id":{"level":13,"age":34},"count":1210},
    {"_id":{"level":5,"age":26},"count":7787},
    {"_id":{"level":13,"age":96},"count":4},
    {"_id":{"level":11,"age":28},"count":7017},
    {"_id":{"level":12,"age":25},"count":37249},
    {"_id":{"level":11,"age":29},"count":6351},
    {"_id":{"level":1,"age":17},"count":26},
    {"_id":{"level":7,"age":37},"count":16414},
    {"_id":{"level":7,"age":71},"count":3479},
    {"_id":{"level":12,"age":29},"count":18230},
    {"_id":{"level":12,"age":37},"count":8914},
    {"_id":{"level":7,"age":68},"count":4833},
    {"_id":{"level":11,"age":71},"count":319},
    {"_id":{"level":5,"age":23},"count":6998},
    {"_id":{"level":6,"age":85},"count":5741},
    {"_id":{"level":5,"age":32},"count":9323},
    {"_id":{"level":10,"age":84},"count":534},
    {"_id":{"level":12,"age":64},"count":4424},
    {"_id":{"level":6,"age":86},"count":5654},
    {"_id":{"level":5,"age":27},"count":7956},
    {"_id":{"level":12,"age":78},"count":869},
    {"_id":{"level":4,"age":13},"count":957},
    {"_id":{"level":6,"age":83},"count":6595},
    {"_id":{"level":7,"age":42},"count":20244},
    {"_id":{"level":4,"age":68},"count":36},
    {"_id":{"level":6,"age":90},"count":2845},
    {"_id":{"level":6,"age":78},"count":8860},
    {"_id":{"level":5,"age":97},"count":494},
    {"_id":{"level":8,"age":42},"count":8312},
    {"_id":{"level":10,"age":58},"count":2461},
    {"_id":{"level":13,"age":49},"count":300},
    {"_id":{"level":8,"age":54},"count":8496},
    {"_id":{"level":7,"age":39},"count":16363},
    {"_id":{"level":10,"age":69},"count":1807},
    {"_id":{"level":5,"age":100},"count":647},
    {"_id":{"level":13,"age":91},"count":1},
    {"_id":{"level":6,"age":59},"count":4476},
    {"_id":{"level":9,"age":59},"count":7065},
    {"_id":{"level":12,"age":21},"count":81727},
    {"_id":{"level":10,"age":70},"count":1758},
    {"_id":{"level":11,"age":92},"count":23},
    {"_id":{"level":12,"age":24},"count":47029},
    {"_id":{"level":6,"age":77},"count":9700},
    {"_id":{"level":11,"age":52},"count":1590},
    {"_id":{"level":14,"age":51},"count":74},
    {"_id":{"level":8,"age":21},"count":9810},
    {"_id":{"level":12,"age":66},"count":3535},
    {"_id":{"level":12,"age":82},"count":517},
    {"_id":{"level":5,"age":33},"count":10379},
    {"_id":{"level":7,"age":48},"count":23174},
    {"_id":{"level":11,"age":47},"count":2048},
    {"_id":{"level":12,"age":33},"count":11830},
    {"_id":{"level":11,"age":56},"count":1111},
    {"_id":{"level":14,"age":55},"count":52},
    {"_id":{"level":6,"age":65},"count":8078},
    {"_id":{"level":5,"age":79},"count":13229},
    {"_id":{"level":12,"age":59},"count":3820},
    {"_id":{"level":8,"age":61},"count":4832},
    {"_id":{"level":7,"age":30},"count":16610},
    {"_id":{"level":8,"age":43},"count":8173},
    {"_id":{"level":12,"age":20},"count":75424},
    {"_id":{"level":5,"age":84},"count":8635},
    {"_id":{"level":7,"age":45},"count":22878},
    {"_id":{"level":13,"age":52},"count":221},
    {"_id":{"level":8,"age":62},"count":4127},
    {"_id":{"level":4,"age":26},"count":540},
    {"_id":{"level":8,"age":34},"count":7830},
    {"_id":{"level":12,"age":43},"count":6484},
    {"_id":{"level":12,"age":58},"count":3673},
    {"_id":{"level":11,"age":70},"count":315},
    {"_id":{"level":12,"age":54},"count":3830},
    {"_id":{"level":10,"age":60},"count":2756},
    {"_id":{"level":5,"age":20},"count":6592},
    {"_id":{"level":5,"age":36},"count":13209},
    {"_id":{"level":5,"age":30},"count":8516},
    {"_id":{"level":14,"age":90},"count":2},
    {"_id":{"level":7,"age":36},"count":15962},
    {"_id":{"level":12,"age":46},"count":4930},
    {"_id":{"level":1,"age":6},"count":741},
    {"_id":{"level":7,"age":18},"count":44926},
    {"_id":{"level":11,"age":88},"count":53},
    {"_id":{"level":8,"age":55},"count":8375},
    {"_id":{"level":1,"age":73},"count":25},
    {"_id":{"level":8,"age":23},"count":9987},
    {"_id":{"level":4,"age":54},"count":190},
    {"_id":{"level":8,"age":69},"count":1594},
    {"_id":{"level":11,"age":20},"count":19763},
    {"_id":{"level":7,"age":19},"count":23131},
    {"_id":{"level":11,"age":25},"count":8774},
    {"_id":{"level":13,"age":57},"count":150},
    {"_id":{"level":6,"age":100},"count":485},
    {"_id":{"level":5,"age":48},"count":29440},
    {"_id":{"level":6,"age":63},"count":6908},
    {"_id":{"level":7,"age":34},"count":15765},
    {"_id":{"level":5,"age":51},"count":37020},
    {"_id":{"level":10,"age":95},"count":41},
    {"_id":{"level":7,"age":16},"count":148914},
    {"_id":{"level":4,"age":16},"count":898},
    {"_id":{"level":7,"age":20},"count":17905},
    {"_id":{"level":9,"age":77},"count":7897},
    {"_id":{"level":7,"age":44},"count":22762},
    {"_id":{"level":5,"age":34},"count":12032},
    {"_id":{"level":9,"age":67},"count":12247},
    {"_id":{"level":12,"age":94},"count":72},
    {"_id":{"level":5,"age":14},"count":50163},
    {"_id":{"level":5,"age":18},"count":7077},
    {"_id":{"level":1,"age":39},"count":14},
    {"_id":{"level":5,"age":38},"count":14541},
    {"_id":{"level":7,"age":100},"count":140},
    {"_id":{"level":12,"age":31},"count":14372},
    {"_id":{"level":1,"age":36},"count":13},
    {"_id":{"level":5,"age":63},"count":31564},
    {"_id":{"level":8,"age":26},"count":10114},
    {"_id":{"level":3,"age":5},"count":111531},
    {"_id":{"level":6,"age":71},"count":11105},
    {"_id":{"level":9,"age":82},"count":4855},
    {"_id":{"level":5,"age":53},"count":40397},
    {"_id":{"level":5,"age":28},"count":8106},
    {"_id":{"level":14,"age":26},"count":169},
    {"_id":{"level":12,"age":28},"count":21089},
    {"_id":{"level":9,"age":87},"count":3076},
    {"_id":{"level":14,"age":27},"count":239},
    {"_id":{"level":11,"age":65},"count":570},
    {"_id":{"level":8,"age":27},"count":10512},
    {"_id":{"level":6,"age":69},"count":10255},
    {"_id":{"level":8,"age":18},"count":33075},
    {"_id":{"level":1,"age":100},"count":41},
    {"_id":{"level":6,"age":66},"count":8472},
    {"_id":{"level":14,"age":45},"count":106},
    {"_id":{"level":14,"age":77},"count":12},
    {"_id":{"level":7,"age":23},"count":16752},
    {"_id":{"level":7,"age":40},"count":17015},
    {"_id":{"level":7,"age":93},"count":106},
    {"_id":{"level":6,"age":87},"count":4768},
    {"_id":{"level":5,"age":15},"count":20717},
    {"_id":{"level":11,"age":62},"count":707},
    {"_id":{"level":5,"age":54},"count":42644},
    {"_id":{"level":7,"age":22},"count":17078},
    {"_id":{"level":14,"age":53},"count":64},
    {"_id":{"level":8,"age":68},"count":1684},
    {"_id":{"level":5,"age":17},"count":8881},
    {"_id":{"level":5,"age":75},"count":19197},
    {"_id":{"level":14,"age":63},"count":28},
    {"_id":{"level":5,"age":60},"count":32154},
    {"_id":{"level":12,"age":84},"count":469},
    {"_id":{"level":11,"age":98},"count":3},
    {"_id":{"level":5,"age":83},"count":8939},
    {"_id":{"level":4,"age":15},"count":861},
    {"_id":{"level":5,"age":39},"count":15854},
    {"_id":{"level":1,"age":3},"count":110682},
    {"_id":{"level":1,"age":7},"count":156},
    {"_id":{"level":8,"age":17},"count":66800},
    {"_id":{"level":7,"age":25},"count":16726},
    {"_id":{"level":13,"age":50},"count":259},
    {"_id":{"level":13,"age":76},"count":14},
    {"_id":{"level":4,"age":50},"count":243},
    {"_id":{"level":1,"age":5},"count":5934},
    {"_id":{"level":9,"age":66},"count":11232},
    {"_id":{"level":1,"age":76},"count":16},
    {"_id":{"level":8,"age":24},"count":10011},
    {"_id":{"level":11,"age":81},"count":78},
    {"_id":{"level":8,"age":15},"count":40799},
    {"_id":{"level":13,"age":36},"count":1055},
    {"_id":{"level":5,"age":78},"count":14394},
    {"_id":{"level":5,"age":64},"count":30731},
    {"_id":{"level":13,"age":81},"count":10},
    {"_id":{"level":7,"age":43},"count":21835},
    {"_id":{"level":5,"age":77},"count":16553},
    {"_id":{"level":9,"age":71},"count":11585},
    {"_id":{"level":1,"age":34},"count":9},
    {"_id":{"level":5,"age":41},"count":18684},
    {"_id":{"level":13,"age":92},"count":2},
    {"_id":{"level":5,"age":66},"count":28600},
    {"_id":{"level":8,"age":64},"count":2830},
    {"_id":{"level":7,"age":55},"count":24320},
    {"_id":{"level":14,"age":71},"count":19},
    {"_id":{"level":5,"age":68},"count":27384},
    {"_id":{"level":1,"age":32},"count":9},
    {"_id":{"level":4,"age":40},"count":273},
    {"_id":{"level":9,"age":65},"count":10263},
    {"_id":{"level":12,"age":76},"count":1188},
    {"_id":{"level":11,"age":42},"count":2830},
    {"_id":{"level":5,"age":72},"count":22855},
    {"_id":{"level":8,"age":80},"count":412},
    {"_id":{"level":4,"age":7},"count":821},
    {"_id":{"level":8,"age":28},"count":9833},
    {"_id":{"level":6,"age":58},"count":4055},
    {"_id":{"level":4,"age":42},"count":265},
    {"_id":{"level":5,"age":47},"count":26884},
    {"_id":{"level":5,"age":24},"count":7402},
    {"_id":{"level":12,"age":45},"count":5524},
    {"_id":{"level":7,"age":61},"count":16156},
    {"_id":{"level":5,"age":57},"count":39716},
    {"_id":{"level":9,"age":62},"count":7543},
    {"_id":{"level":5,"age":58},"count":33625},
    {"_id":{"level":7,"age":64},"count":10528},
    {"_id":{"level":4,"age":29},"count":356},
    {"_id":{"level":6,"age":68},"count":9945},
    {"_id":{"level":7,"age":92},"count":146},
    {"_id":{"level":5,"age":42},"count":20819},
    {"_id":{"level":1,"age":1},"count":45921},
    {"_id":{"level":11,"age":77},"count":148},
    {"_id":{"level":7,"age":24},"count":16887},
    {"_id":{"level":4,"age":71},"count":22},
    {"_id":{"level":5,"age":71},"count":24001},
    {"_id":{"level":8,"age":58},"count":5781},
    {"_id":{"level":5,"age":10},"count":222137},
    {"_id":{"level":11,"age":43},"count":2762},
    {"_id":{"level":5,"age":69},"count":26299},
    {"_id":{"level":5,"age":81},"count":11053},
    {"_id":{"level":7,"age":38},"count":16375},
    {"_id":{"level":8,"age":22},"count":10174},
    {"_id":{"level":12,"age":80},"count":768},
    {"_id":{"level":8,"age":36},"count":7729},
    {"_id":{"level":4,"age":49},"count":243},
    {"_id":{"level":5,"age":61},"count":31738},
    {"_id":{"level":5,"age":9},"count":227185},
    {"_id":{"level":5,"age":76},"count":18096},
    {"_id":{"level":12,"age":47},"count":4513},
    {"_id":{"level":8,"age":35},"count":8186},
    {"_id":{"level":12,"age":68},"count":2797},
    {"_id":{"level":5,"age":25},"count":7496},
    {"_id":{"level":13,"age":51},"count":254},
    {"_id":{"level":8,"age":19},"count":13199},
    {"_id":{"level":4,"age":11},"count":1039},
    {"_id":{"level":8,"age":45},"count":8456},
    {"_id":{"level":5,"age":11},"count":219536},
    {"_id":{"level":7,"age":35},"count":16812},
    {"_id":{"level":5,"age":56},"count":41388},
    {"_id":{"level":10,"age":61},"count":2651},
    {"_id":{"level":11,"age":67},"count":435},
    {"_id":{"level":8,"age":29},"count":9367},
    {"_id":{"level":4,"age":100},"count":3},
    {"_id":{"level":12,"age":69},"count":2488},
    {"_id":{"level":5,"age":31},"count":9092},
    {"_id":{"level":7,"age":58},"count":20417},
    {"_id":{"level":8,"age":57},"count":8160},
    {"_id":{"level":5,"age":74},"count":20241},
    {"_id":{"level":8,"age":40},"count":7876},
    {"_id":{"level":7,"age":46},"count":22517},
    {"_id":{"level":13,"age":26},"count":1164},
    {"_id":{"level":1,"age":2},"count":75989},
    {"_id":{"level":5,"age":46},"count":25393},
    {"_id":{"level":7,"age":32},"count":15158},
    {"_id":{"level":1,"age":31},"count":16},
    {"_id":{"level":7,"age":60},"count":18352},
    {"_id":{"level":11,"age":34},"count":4344},
    {"_id":{"level":1,"age":4},"count":31149},
    {"_id":{"level":12,"age":38},"count":8088},
    {"_id":{"level":9,"age":85},"count":3789},
    {"_id":{"level":5,"age":50},"count":35078},
    {"_id":{"level":5,"age":59},"count":32480},
    {"_id":{"level":8,"age":50},"count":8476},
    {"_id":{"level":5,"age":8},"count":232025},
    {"_id":{"level":1,"age":80},"count":20},
    {"_id":{"level":5,"age":7},"count":223044},
    {"_id":{"level":1,"age":16},"count":26},
    {"_id":{"level":12,"age":26},"count":30454},
    {"_id":{"level":4,"age":76},"count":21},
    {"_id":{"level":5,"age":45},"count":24740},
    {"_id":{"level":5,"age":67},"count":28244},
    {"_id":{"level":7,"age":15},"count":129857},
    {"_id":{"level":8,"age":31},"count":8072},
    {"_id":{"level":10,"age":85},"count":440},
    {"_id":{"level":11,"age":80},"count":100},
    {"_id":{"level":8,"age":48},"count":8462},
    {"_id":{"level":14,"age":78},"count":5},
    {"_id":{"level":8,"age":20},"count":10096},
    {"_id":{"level":5,"age":70},"count":25339},
    {"_id":{"level":6,"age":94},"count":1158},
    {"_id":{"level":7,"age":63},"count":12571},
    {"_id":{"level":9,"age":68},"count":12363},
    {"_id":{"level":5,"age":43},"count":22463},
    {"_id":{"level":7,"age":28},"count":17831},
    {"_id":{"level":10,"age":96},"count":33},
    {"_id":{"level":10,"age":65},"count":1715},
    {"_id":{"level":5,"age":85},"count":7505},
    {"_id":{"level":10,"age":83},"count":516},
    {"_id":{"level":4,"age":61},"count":77},
    {"_id":{"level":5,"age":92},"count":2206},
    {"_id":{"level":8,"age":37},"count":7907},
    {"_id":{"level":5,"age":35},"count":13181},
    {"_id":{"level":5,"age":55},"count":41351},
    {"_id":{"level":4,"age":12},"count":1040},
    {"_id":{"level":5,"age":65},"count":29640},
    {"_id":{"level":9,"age":61},"count":7485},
    {"_id":{"level":12,"age":22},"count":68962},
    {"_id":{"level":10,"age":82},"count":639},
    {"_id":{"level":5,"age":12},"count":217482},
    {"_id":{"level":7,"age":21},"count":16761},
    {"_id":{"level":14,"age":46},"count":97},
    {"_id":{"level":11,"age":95},"count":11},
    {"_id":{"level":7,"age":65},"count":8426},
    {"_id":{"level":13,"age":70},"count":31},
    {"_id":{"level":5,"age":13},"count":218674},
    {"_id":{"level":5,"age":44},"count":23718},
    {"_id":{"level":5,"age":40},"count":16561},
    {"_id":{"level":5,"age":16},"count":11627},
    {"_id":{"level":8,"age":16},"count":58733},
    {"_id":{"level":1,"age":64},"count":13},
    {"_id":{"level":7,"age":17},"count":150642},
    {"_id":{"level":5,"age":52},"count":39114},
    {"_id":{"level":7,"age":53},"count":24369},
    {"_id":{"level":5,"age":29},"count":8263},
    {"_id":{"level":5,"age":62},"count":30732},
    {"_id":{"level":11,"age":41},"count":2782},
    {"_id":{"level":6,"age":67},"count":9540},
    {"_id":{"level":1,"age":77},"count":20},
    {"_id":{"level":12,"age":36},"count":9696},
    {"_id":{"level":4,"age":62},"count":51},
    {"_id":{"level":1,"age":29},"count":8},
    {"_id":{"level":11,"age":24},"count":9421},
    {"_id":{"level":6,"age":73},"count":10571},
    {"_id":{"level":4,"age":19},"count":794},
    {"_id":{"level":5,"age":49},"count":31983}
]