[
    {"id":"A","value":"Agricultura","description":"Agricultura, ganadería, silvicultura y pesca"},
    {"id":"B","value":"Minería","description":"Explotación de minas y canteras"},
    {"id":"C","value":"Manufactura","description":"Industrias manufactureras"},
    {"id":"D","value":"Electric., gas, etc","description":"Suministro de electricidad, gas, vapor y aire acondicionado"},
    {"id":"E","value":"Tratamiento de aguas","description":"Suministro de agua, evacuación de aguas residuales, gestión de desechos y descontaminación"},
    {"id":"F","value":"Construcción","description":"Construcción"},
    {"id":"G","value":"Comercio","description":"Comercio al por mayor y al por menor, reparación de vehículos automotores y motocicletas"},
    {"id":"H","value":"Transporte","description":"Transporte y almacenamiento"},
    {"id":"I","value":"Alojamiento","description":"Actividades de alojamiento y de servicios de comidas"},
    {"id":"J","value":"Inform. y comunicaciones","description":"Información y comunicaciones"},
    {"id":"K","value":"Financiera","description":"Actividades financieras y de seguros"},
    {"id":"L","value":"Inmobiliarias","description":"Actividades inmobiliarias"},
    {"id":"M","value":"Científico/Técnico","description":"Actividades profesionales, científicas y técnicas"},
    {"id":"N","value":"Administrativo","description":"Actividades de servicios administrativos y de apoyo"},
    {"id":"O","value":"Admin. pública","description":"Administración pública y defensa, planes de seguridad social de afiliación obligatoria"},
    {"id":"P","value":"Enseñanza","description":"Enseñanza"},
    {"id":"Q","value":"Salud","description":"Actividades de atención de la salud humana y de asistencia social"},
    {"id":"R","value":"Arte","description":"Actividades artísticas, de entretenimiento y recreativas"},
    {"id":"S","value":"Otros servicios","description":"Otras actividades de servicios"},
    {"id":"T","value":"Bienes y servicios","description":"Actividades de los hogares como empleadores, actividades no diferenciadas de los hogares como productores de  bienes y servicios para uso propio"},
    {"id":"U","value":"Extraterritoriales","description":"Actividades de organizaciones y órganos extraterritoriales"},
    {"id":"Z","value":"No declarada","description":"Rama no declarada"}
]